…
```r
# Chromosomes
table(dd_class$Chr, useNA = "ifany")
## 
##     1    10    11    12    13    14    15    16    17    18    19     2 
## 30812 17350 12176 15339  6328 17315 13739  2803  7140  1034  2941 23254 
##    20    22     3     4     5     6     7     8     9     X 
##  2431  4467 13996 19976  1594  8281  5375 13598 10318 19644
# Genes - 118 total
(gene_count <- dd_class %>%
  group_by(Name) %>% 
  summarise(Count = n()) %>% 
  arrange(-Count))
## # A tibble: 118 x 2
##    Name    Count
##    <chr>   <int>
##  1 LYST    11400
##  2 CHD7     8984
##  3 TENM3    8097
##  4 CEP290   7456
##  5 ABCA4    6804
##  6 CACNA1F  5919
##  7 MYO5A    5514
##  8 LAMB2    5406
##  9 BCOR     5160
## 10 RIMS1    5083
## # ... with 108 more rows
```

## Exons per gene 

* Take one gene first. CEP290 had most exons (53).


```r
dd_class %>%
  select(Name, Exon_Number, Chr) %>%
  filter(Name == "CEP290") %>%
  group_by(Exon_Number) %>%
  summarise(Count = n())
## # A tibble: 53 x 2
##    Exon_Number Count
##          <int> <int>
##  1           0   240
##  2           1    79
##  3           2    95
##  4           3    76
##  5           4   152
##  6           5   173
##  7           6   123
##  8           7   163
##  9           8    87
## 10           9   133
## # ... with 43 more rows
```

* Look at all gene exon numbers in decreasing order:


```r
dd_class %>% 
  select(Name, Exon_Number) %>% 
  unique() %>%
  group_by(Name) %>% 
  summarise(Count = n()) %>% 
  arrange(-Count)
## # A tibble: 118 x 2
##    Name     Count
##    <chr>    <int>
##  1 CEP290      53
##  2 COL4A1      52
##  3 LYST        51
##  4 ABCA4       50
##  5 CACNA1F     48
##  6 MYO5A       41
##  7 CACNA2D4    38
##  8 CHD7        37
##  9 RAB3GAP2    35
## 10 RIMS1       34
## # ... with 108 more rows
```
…
```r
dd_class %>% 
  group_by(Name) %>% 
  summarise(
    tot_bases = n(),
    lt5 = sum(Read_Depth < 5),
    lt10 = sum(Read_Depth < 10),
    lt50 = sum(Read_Depth < 50),
    gt10 = sum(Read_Depth >= 10),
    pc5 = lt5 / tot_bases,
    pc10 = lt10 / tot_bases) %>% 
  arrange(-pc10)
## # A tibble: 118 x 8
##    Name    tot_bases   lt5  lt10  lt50  gt10     pc5    pc10
##    <chr>       <int> <int> <int> <int> <int>   <dbl>   <dbl>
##  1 BBIP1         220     0    61   173   159 0       0.277  
##  2 ISPD         1339     0    57   459  1282 0       0.0426 
##  3 CASK         2778     0    79   386  2699 0       0.0284 
##  4 NAA10         725     0    10    87   715 0       0.0138 
##  5 CNGB3        2436     0    18   431  2418 0       0.00739
##  6 LYST        11400    13    66  1024 11334 0.00114 0.00579
##  7 PROM1        2601     0     8   418  2593 0       0.00308
##  8 RET          3348     0     9   252  3339 0       0.00269
##  9 CEP290       7456     0    18  2263  7438 0       0.00241
## 10 SLC25A1       933     0     2   172   931 0       0.00214
## # ... with 108 more rows
```
…
